{
    "web": {
        "enabled": 1,
        "hidden": false,
        "description": "Websites",
        "nixexprinput": "nixScripts",
        "nixexprpath": "web.nix",
        "checkinterval": 300,
        "schedulingshares": 10,
        "enableemail": false,
        "emailoverride": "",
        "keepnr": 10,
        "inputs": {
            "nixpkgs": { "type": "git", "value": "https://github.com/NixOS/nixpkgs.git nixos-24.05", "emailresponsible": false },
            "nixScripts": { "type": "git", "value": "https://git.m-labs.hk/M-Labs/nix-scripts.git", "emailresponsible": false },
            "webSrc": { "type": "git", "value": "https://git.m-labs.hk/M-Labs/web2019.git", "emailresponsible": false },
            "nmigenSrc": { "type": "git", "value": "https://gitlab.com/nmigen/nmigen.git", "emailresponsible": false }
        }
    }
}
